BIOSCI220
…
count: false
 
### Everything working nicely!
.left-panel-example_mean-auto[

```r
*paua
```
]
 
.right-panel-example_mean-auto[

```
## # A tibble: 60 x 3
##    Species            Length   Age
##    <chr>               <dbl> <dbl>
##  1 Haliotis iris        1.8   1.50
##  2 Haliotis australis   5.4  11.9 
##  3 Haliotis australis   4.8   5.42
##  4 Haliotis iris        5.75  4.50
##  5 Haliotis iris        5.65  5.50
##  6 Haliotis iris        2.8   2.50
##  7 Haliotis australis   5.9   6.49
##  8 Haliotis iris        3.75  5.00
##  9 Haliotis australis   7.2   8.56
## 10 Haliotis iris        4.25  5.50
## # … with 50 more rows
```
…
### Everything working nicely!
.left-panel-example_mean-auto[

```r
paua %>%  
* group_by(Species)
```
]
 
.right-panel-example_mean-auto[

```
## # A tibble: 60 x 3
## # Groups:   Species [2]
##    Species            Length   Age
##    <chr>               <dbl> <dbl>
##  1 Haliotis iris        1.8   1.50
##  2 Haliotis australis   5.4  11.9 
##  3 Haliotis australis   4.8   5.42
##  4 Haliotis iris        5.75  4.50
##  5 Haliotis iris        5.65  5.50
##  6 Haliotis iris        2.8   2.50
##  7 Haliotis australis   5.9   6.49
##  8 Haliotis iris        3.75  5.00
##  9 Haliotis australis   7.2   8.56
## 10 Haliotis iris        4.25  5.50
## # … with 50 more rows
```
…
### Data manipulation
.left-panel-penguins-auto[

```r
library(palmerpenguins)  ## contains some nice penguin data
*penguins
```
]
 
.right-panel-penguins-auto[

```
## # A tibble: 344 x 8
##    species island    bill_length_mm bill_depth_mm flipper_length_mm body_mass_g
##    <fct>   <fct>              <dbl>         <dbl>             <int>       <int>
##  1 Adelie  Torgersen           39.1          18.7               181        3750
##  2 Adelie  Torgersen           39.5          17.4               186        3800
##  3 Adelie  Torgersen           40.3          18                 195        3250
##  4 Adelie  Torgersen           NA            NA                  NA          NA
##  5 Adelie  Torgersen           36.7          19.3               193        3450
##  6 Adelie  Torgersen           39.3          20.6               190        3650
##  7 Adelie  Torgersen           38.9          17.8               181        3625
##  8 Adelie  Torgersen           39.2          19.6               195        4675
##  9 Adelie  Torgersen           34.1          18.1               193        3475
## 10 Adelie  Torgersen           42            20.2               190        4250
## # … with 334 more rows, and 2 more variables: sex <fct>, year <int>
```
…
### Data manipulation
.left-panel-penguins_na-auto[

```r
penguins_nafree <- penguins %>% drop_na()  
*penguins_nafree
```
]
 
.right-panel-penguins_na-auto[

```
## # A tibble: 333 x 8
##    species island    bill_length_mm bill_depth_mm flipper_length_mm body_mass_g
##    <fct>   <fct>              <dbl>         <dbl>             <int>       <int>
##  1 Adelie  Torgersen           39.1          18.7               181        3750
##  2 Adelie  Torgersen           39.5          17.4               186        3800
##  3 Adelie  Torgersen           40.3          18                 195        3250
##  4 Adelie  Torgersen           36.7          19.3               193        3450
##  5 Adelie  Torgersen           39.3          20.6               190        3650
##  6 Adelie  Torgersen           38.9          17.8               181        3625
##  7 Adelie  Torgersen           39.2          19.6               195        4675
##  8 Adelie  Torgersen           41.1          17.6               182        3200
##  9 Adelie  Torgersen           38.6          21.2               191        3800
## 10 Adelie  Torgersen           34.6          21.1               198        4400
## # … with 323 more rows, and 2 more variables: sex <fct>, year <int>
```
…
count: false
 
### Data manipulation
.left-panel-penguins_av-auto[

```r
*penguins_nafree
```
]
 
.right-panel-penguins_av-auto[

```
## # A tibble: 333 x 8
##    species island    bill_length_mm bill_depth_mm flipper_length_mm body_mass_g
##    <fct>   <fct>              <dbl>         <dbl>             <int>       <int>
##  1 Adelie  Torgersen           39.1          18.7               181        3750
##  2 Adelie  Torgersen           39.5          17.4               186        3800
##  3 Adelie  Torgersen           40.3          18                 195        3250
##  4 Adelie  Torgersen           36.7          19.3               193        3450
##  5 Adelie  Torgersen           39.3          20.6               190        3650
##  6 Adelie  Torgersen           38.9          17.8               181        3625
##  7 Adelie  Torgersen           39.2          19.6               195        4675
##  8 Adelie  Torgersen           41.1          17.6               182        3200
##  9 Adelie  Torgersen           38.6          21.2               191        3800
## 10 Adelie  Torgersen           34.6          21.1               198        4400
## # … with 323 more rows, and 2 more variables: sex <fct>, year <int>
```
…
### Data manipulation
.left-panel-penguins_av-auto[

```r
penguins_nafree %>%  
* group_by(species)
```
]
 
.right-panel-penguins_av-auto[

```
## # A tibble: 333 x 8
## # Groups:   species [3]
##    species island    bill_length_mm bill_depth_mm flipper_length_mm body_mass_g
##    <fct>   <fct>              <dbl>         <dbl>             <int>       <int>
##  1 Adelie  Torgersen           39.1          18.7               181        3750
##  2 Adelie  Torgersen           39.5          17.4               186        3800
##  3 Adelie  Torgersen           40.3          18                 195        3250
##  4 Adelie  Torgersen           36.7          19.3               193        3450
##  5 Adelie  Torgersen           39.3          20.6               190        3650
##  6 Adelie  Torgersen           38.9          17.8               181        3625
##  7 Adelie  Torgersen           39.2          19.6               195        4675
##  8 Adelie  Torgersen           41.1          17.6               182        3200
##  9 Adelie  Torgersen           38.6          21.2               191        3800
## 10 Adelie  Torgersen           34.6          21.1               198        4400
## # … with 323 more rows, and 2 more variables: sex <fct>, year <int>
```
…
