2 Data exploration and visualization | Module I BIOSCI220, University of Auckland
…
library(palmerpenguins) ## contains some nice penguin data
penguins

## # A tibble: 344 x 8
##    species island bill_length_mm bill_depth_mm flipper_length_… body_mass_g
##    <fct>   <fct>           <dbl>         <dbl>            <int>       <int>
##  1 Adelie  Torge…           39.1          18.7              181        3750
##  2 Adelie  Torge…           39.5          17.4              186        3800
##  3 Adelie  Torge…           40.3          18                195        3250
##  4 Adelie  Torge…           NA            NA                 NA          NA
##  5 Adelie  Torge…           36.7          19.3              193        3450
##  6 Adelie  Torge…           39.3          20.6              190        3650
##  7 Adelie  Torge…           38.9          17.8              181        3625
##  8 Adelie  Torge…           39.2          19.6              195        4675
##  9 Adelie  Torge…           34.1          18.1              193        3475
## 10 Adelie  Torge…           42            20.2              190        4250
## # … with 334 more rows, and 2 more variables: sex <fct>, year <int>
…
The output from the first apply() is then fed to the second apply() (using the .). The sum() function then add them up!

R treats a TRUE as a 1 and a FALSE as a 0.

So how many NAs do you think there are!

Doesn't help much. To

Now we know there are NA values throughout the data let's remove then and create a new NA free version called penguins_nafree. There is a really handy tidyverse (dplyr) function for this!

penguins_nafree <- penguins %>% drop_na()
penguins_nafree

## # A tibble: 333 x 8
##    species island bill_length_mm bill_depth_mm flipper_length_… body_mass_g
##    <fct>   <fct>           <dbl>         <dbl>            <int>       <int>
##  1 Adelie  Torge…           39.1          18.7              181        3750
##  2 Adelie  Torge…           39.5          17.4              186        3800
##  3 Adelie  Torge…           40.3          18                195        3250
##  4 Adelie  Torge…           36.7          19.3              193        3450
##  5 Adelie  Torge…           39.3          20.6              190        3650
##  6 Adelie  Torge…           38.9          17.8              181        3625
##  7 Adelie  Torge…           39.2          19.6              195        4675
##  8 Adelie  Torge…           41.1          17.6              182        3200
##  9 Adelie  Torge…           38.6          21.2              191        3800
## 10 Adelie  Torge…           34.6          21.1              198        4400
## # … with 323 more rows, and 2 more variables: sex <fct>, year <int>

Below are some other useful manipulation functions; have a look at the out puts and run them yourselves and see if you can work out what they're doing.

filter(penguins_nafree, island == "Torgersen" )

## # A tibble: 47 x 8
##    species island bill_length_mm bill_depth_mm flipper_length_… body_mass_g
##    <fct>   <fct>           <dbl>         <dbl>            <int>       <int>
##  1 Adelie  Torge…           39.1          18.7              181        3750
##  2 Adelie  Torge…           39.5          17.4              186        3800
##  3 Adelie  Torge…           40.3          18                195        3250
##  4 Adelie  Torge…           36.7          19.3              193        3450
##  5 Adelie  Torge…           39.3          20.6              190        3650
##  6 Adelie  Torge…           38.9          17.8              181        3625
##  7 Adelie  Torge…           39.2          19.6              195        4675
##  8 Adelie  Torge…           41.1          17.6              182        3200
##  9 Adelie  Torge…           38.6          21.2              191        3800
## 10 Adelie  Torge…           34.6          21.1              198        4400
## # … with 37 more rows, and 2 more variables: sex <fct>, year <int>

summarise(penguins_nafree, avgerage_bill_length = mean(bill_length_mm))

## # A tibble: 1 x 1
##   avgerage_bill_length
##                  <dbl>
## 1                 44.0

group_by(penguins_nafree, species)

## # A tibble: 333 x 8
## # Groups:   species [3]
##    species island bill_length_mm bill_depth_mm flipper_length_… body_mass_g
##    <fct>   <fct>           <dbl>         <dbl>            <int>       <int>
##  1 Adelie  Torge…           39.1          18.7              181        3750
##  2 Adelie  Torge…           39.5          17.4              186        3800
##  3 Adelie  Torge…           40.3          18                195        3250
##  4 Adelie  Torge…           36.7          19.3              193        3450
##  5 Adelie  Torge…           39.3          20.6              190        3650
##  6 Adelie  Torge…           38.9          17.8              181        3625
##  7 Adelie  Torge…           39.2          19.6              195        4675
##  8 Adelie  Torge…           41.1          17.6              182        3200
##  9 Adelie  Torge…           38.6          21.2              191        3800
## 10 Adelie  Torge…           34.6          21.1              198        4400
## # … with 323 more rows, and 2 more variables: sex <fct>, year <int>
…
